{
  "project_info": {
    "project_number": "17370026719",
    "project_id": "pantio-login",
    "storage_bucket": "pantio-login.appspot.com"
  },
  "client": [
    {
      "client_info": {
        "mobilesdk_app_id": "1:17370026719:android:f91db4d05b9eb5c29d4f6a",
        "android_client_info": {
          "package_name": "com.example.suplo_themes"
        }
      },
      "oauth_client": [
        {
          "client_id": "17370026719-ukveaptvnb086ilmcln26vai87m5mu3j.apps.googleusercontent.com",
          "client_type": 3
        }
      ],
      "api_key": [
        {
          "current_key": "AIzaSyAUchNnwwn6oLBxAR2GUWcmLx16h9tEZi0"
        }
      ],
      "services": {
        "appinvite_service": {
          "other_platform_oauth_client": [
            {
              "client_id": "17370026719-ukveaptvnb086ilmcln26vai87m5mu3j.apps.googleusercontent.com",
              "client_type": 3
            }
          ]
        }
      }
    }
  ],
  "configuration_version": "1"
}